<?xml version="1.0" encoding="UTF-8" standalone="no"?>
<svg
   xmlns:dc="http://purl.org/dc/elements/1.1/"
   xmlns:cc="http://creativecommons.org/ns#"
   xmlns:rdf="http://www.w3.org/1999/02/22-rdf-syntax-ns#"
   xmlns:svg="http://www.w3.org/2000/svg"
   xmlns="http://www.w3.org/2000/svg"
   xmlns:sodipodi="http://sodipodi.sourceforge.net/DTD/sodipodi-0.dtd"
   xmlns:inkscape="http://www.inkscape.org/namespaces/inkscape"
   width="32"
   height="32"
   viewBox="0 0 8.4666665 8.4666669"
   version="1.1"
   id="svg8"
   inkscape:version="1.0.1 (3bc2e813f5, 2020-09-07)"
   sodipodi:docname="TextField.svg"
   inkscape:export-filename="icon.png"
   inkscape:export-xdpi="96"
   inkscape:export-ydpi="96">
  <defs
     id="defs2" />
  <sodipodi:namedview
     id="base"
     pagecolor="#ffffff"
     bordercolor="#666666"
     borderopacity="1.0"
     inkscape:pageopacity="0.0"
     inkscape:pageshadow="2"
     inkscape:zoom="11.313708"
     inkscape:cx="12.958318"
     inkscape:cy="12.383504"
     inkscape:document-units="mm"
     inkscape:current-layer="layer1"
     inkscape:document-rotation="0"
     showgrid="true"
     units="px"
     inkscape:window-width="1888"
     inkscape:window-height="1012"
     inkscape:window-x="16"
     inkscape:window-y="52"
     inkscape:window-maximized="1">
    <inkscape:grid
       type="xygrid"
       id="grid833" />
  </sodipodi:namedview>
  <metadata
     id="metadata5">
    <rdf:RDF>
      <cc:Work
         rdf:about="">
        <dc:format>image/svg+xml</dc:format>
        <dc:type
           rdf:resource="http://purl.org/dc/dcmitype/StillImage" />
        <dc:title></dc:title>
      </cc:Work>
    </rdf:RDF>
  </metadata>
  <g
     inkscape:label="Layer 1"
     inkscape:groupmode="layer"
     id="layer1">
    <path
       id="rect837"
       style="fill:#008000;stroke-width:0.494583"
       d="M 0.26458333,0.5291666 V 0.2645833 H 8.2020833 v 0.2645833 h 0.2645834 l 0,7.4083334 H 8.2020833 V 8.2020833 H 0.26458336 V 7.9375 H 3.3333331e-8 L 0,0.5291666 Z"
       sodipodi:nodetypes="ccccccccccccc" />
    <path
       id="rect839"
       style="fill:#00bd00;fill-opacity:1;stroke-width:0.689952"
       d="M 0.52916667,0.79375 V 0.5291666 H 7.9375 V 0.79375 h 0.2645833 l 0,6.8791667 H 7.9375 V 7.9375 H 0.5291667 V 7.6729167 H 0.26458336 l -3e-8,-6.8791667 z"
       sodipodi:nodetypes="ccccccccccccc" />
    <path
       id="rect943"
       style="fill:#007200;fill-opacity:1;stroke-width:0.264583"
       d="M 2.9104166,0.79374993 V 1.0583333 H 3.175 l 1e-7,2.9104167 H 2.9104167 v 0.2645834 h 0.79375 V 3.96875 H 3.4395834 l -1e-7,-2.9104167 H 3.7041666 V 0.79374993 Z"
       sodipodi:nodetypes="ccccccccccccc" />
    <text
       xml:space="preserve"
       style="font-style:normal;font-weight:normal;font-size:4.25475px;line-height:1.25;font-family:sans-serif;fill:#004e00;fill-opacity:1;stroke:none;stroke-width:0.106369"
       x="0.40753812"
       y="3.7581847"
       id="text951"><tspan
         sodipodi:role="line"
         id="tspan949"
         x="0.40753812"
         y="3.7581847"
         style="fill:#004e00;fill-opacity:1;stroke-width:0.106369">a</tspan></text>
  </g>
</svg>
